[gd_scene load_steps=4 format=2]

[ext_resource path="res://Lava/TexturesCom_Metal_RedHotSteel_1K_emissive.png" type="Texture" id=2]
[ext_resource path="res://Materials/lava_shadermaterial.tres" type="Material" id=3]
[ext_resource path="res://Lava/Lava.gd" type="Script" id=4]

[node name="Lava" type="Sprite"]
material = ExtResource( 3 )
position = Vector2( 460.704, 299.266 )
scale = Vector2( 1, 0.58009 )
texture = ExtResource( 2 )
offset = Vector2( 50, 0 )
script = ExtResource( 4 )
[connection signal="item_rect_changed" from="." to="." method="calculate_aspect_ratio"]
