[gd_resource type="ShaderMaterial" load_steps=2 format=2]

[ext_resource path="res://Shaders/lava_shader.shader" type="Shader" id=1]

[resource]
shader = ExtResource( 1 )
shader_param/tiled_factor = Vector2( 2, 2 )
shader_param/aspect_ratio = 0.58009
shader_param/time_scale = Vector2( 2, 0.6 )
shader_param/offset_scale = Vector2( 2, 2 )
shader_param/amplitude = Vector2( 0.05, 0.1 )
